Bike Sharing thesis analysis
Project directory: .
Run time: 2026-06-08 10:32:59.601647 

Package availability
# A tibble: 31 × 2
   package   available
   <chr>     <lgl>    
 1 readr     TRUE     
 2 dplyr     TRUE     
 3 tidyr     TRUE     
 4 ggplot2   TRUE     
 5 lubridate TRUE     
 6 scales    TRUE     
 7 broom     TRUE     
 8 MASS      TRUE     
 9 rpart     TRUE     
10 knitr     TRUE     
# ℹ 21 more rows
…
